\relax 
\catcode `:\active 
\catcode `;\active 
\catcode `!\active 
\catcode `?\active 
\select@language{french}
\@writefile{toc}{\select@language{french}}
\@writefile{lof}{\select@language{french}}
\@writefile{lot}{\select@language{french}}
\@writefile{toc}{\contentsline {chapter}{Introduction}{2}}
\@writefile{toc}{\contentsline {chapter}{\numberline {1}Pr\IeC {\'e}liminaires}{3}}
\@writefile{lof}{\addvspace {10\p@ }}
\@writefile{lot}{\addvspace {10\p@ }}
\@writefile{toc}{\contentsline {section}{\numberline {1.1}D\IeC {\'e}finitions et histoire}{3}}
\@writefile{toc}{\contentsline {subsection}{\numberline {1.1.1}D\IeC {\'e}finitions}{3}}
\@writefile{toc}{\contentsline {subsection}{\numberline {1.1.2}Les algorithmes de chiffrement}{3}}
\@writefile{lof}{\contentsline {figure}{\numberline {1.1}{\ignorespaces Chiffre de C\IeC {\'e}sar}}{3}}
\@writefile{toc}{\contentsline {subsection}{\numberline {1.1.3}La cryptanalyse}{4}}
\@writefile{toc}{\contentsline {section}{\numberline {1.2}Objectifs et contraintes du projet}{4}}
\@writefile{toc}{\contentsline {subsection}{\numberline {1.2.1}D\IeC {\'e}finition des objectifs}{4}}
\@writefile{toc}{\contentsline {subsection}{\numberline {1.2.2}Choix des outils et gestion du projet}{5}}
\@writefile{toc}{\contentsline {chapter}{\numberline {2}Reproduction de l'algorithme du DES}{6}}
\@writefile{lof}{\addvspace {10\p@ }}
\@writefile{lot}{\addvspace {10\p@ }}
\@writefile{toc}{\contentsline {section}{\numberline {2.1}Th\IeC {\'e}orie}{6}}
\@writefile{lof}{\contentsline {figure}{\numberline {2.1}{\ignorespaces Sch\IeC {\'e}ma du DES}}{6}}
\newlabel{des16tours}{{2.1}{6}}
\@writefile{toc}{\contentsline {section}{\numberline {2.2}Pratique}{7}}
\@writefile{toc}{\contentsline {subsection}{\numberline {2.2.1}G\IeC {\'e}n\IeC {\'e}ration des n cl\IeC {\'e}s}{7}}
\@writefile{toc}{\contentsline {subsection}{\numberline {2.2.2}Traitement du message sur n tours}{7}}
\@writefile{lof}{\contentsline {figure}{\numberline {2.2}{\ignorespaces Sch\IeC {\'e}ma du DES \IeC {\`a} 4 tours}}{7}}
\newlabel{des4tours}{{2.2}{7}}
\@writefile{toc}{\contentsline {chapter}{\numberline {3}Cryptanalyse de notre algorithme}{9}}
\@writefile{lof}{\addvspace {10\p@ }}
\@writefile{lot}{\addvspace {10\p@ }}
\@writefile{toc}{\contentsline {section}{\numberline {3.1}Choix de la cryptanalyse diff\IeC {\'e}rentielle}{9}}
\@writefile{toc}{\contentsline {section}{\numberline {3.2}Analyses pr\IeC {\'e}alables}{9}}
\@writefile{toc}{\contentsline {subsection}{\numberline {3.2.1}Analyse des boites-S}{10}}
\@writefile{lof}{\contentsline {figure}{\numberline {3.1}{\ignorespaces Distribution des diff\IeC {\'e}rentiels dans la premi\IeC {\`e}re bo\IeC {\^\i }te-S}}{10}}
\newlabel{sbox1}{{3.1}{10}}
\citation{cantaud}
\citation{preneel}
\@writefile{toc}{\contentsline {subsection}{\numberline {3.2.2}Recherche d'un diff\IeC {\'e}rentiel}{11}}
\newlabel{recherchedif}{{3.2.2}{11}}
\@writefile{lof}{\contentsline {figure}{\numberline {3.2}{\ignorespaces Recherche d'un diff\IeC {\'e}rentiel via AWS}}{11}}
\newlabel{differentiel}{{3.2}{11}}
\@writefile{toc}{\contentsline {section}{\numberline {3.3}Cryptanalyse}{11}}
\@writefile{lof}{\contentsline {figure}{\numberline {3.3}{\ignorespaces Probabilit\IeC {\'e} de propagation d'un diff\IeC {\'e}rentiel \IeC {\`a} travers quatre tours}}{12}}
\newlabel{delta4tours}{{3.3}{12}}
\@writefile{toc}{\contentsline {subsection}{\numberline {3.3.1}G\IeC {\'e}n\IeC {\'e}ration des couples clairs/chiffr\IeC {\'e}s}{12}}
\@writefile{toc}{\contentsline {subsection}{\numberline {3.3.2}R\IeC {\'e}cup\IeC {\'e}ration des bits de la cl\IeC {\'e}}{12}}
\@writefile{lof}{\contentsline {figure}{\numberline {3.4}{\ignorespaces Un tour du DES}}{13}}
\newlabel{des1tour}{{3.4}{13}}
\citation{lineaire}
\@writefile{toc}{\contentsline {chapter}{Conclusion}{14}}
\bibcite{grabbe}{1}
\bibcite{martin}{2}
\bibcite{cantaud}{3}
\bibcite{preneel}{4}
\bibcite{lineaire}{5}
\@writefile{toc}{\contentsline {chapter}{Bibliographie}{15}}
\@writefile{toc}{\contentsline {chapter}{Table des illustrations}{16}}
