\relax 
\providecommand\hyper@newdestlabel[2]{}
\providecommand\HyperFirstAtBeginDocument{\AtBeginDocument}
\HyperFirstAtBeginDocument{\ifx\hyper@anchor\@undefined
\global\let\oldcontentsline\contentsline
\gdef\contentsline#1#2#3#4{\oldcontentsline{#1}{#2}{#3}}
\global\let\oldnewlabel\newlabel
\gdef\newlabel#1#2{\newlabelxx{#1}#2}
\gdef\newlabelxx#1#2#3#4#5#6{\oldnewlabel{#1}{{#2}{#3}}}
\AtEndDocument{\ifx\hyper@anchor\@undefined
\let\contentsline\oldcontentsline
\let\newlabel\oldnewlabel
\fi}
\fi}
\global\let\hyper@last\relax 
\gdef\HyperFirstAtBeginDocument#1{#1}
\providecommand\HyField@AuxAddToFields[1]{}
\providecommand\HyField@AuxAddToCoFields[2]{}
\catcode `:\active 
\catcode `;\active 
\catcode `!\active 
\catcode `?\active 
\@writefile{toc}{\beamer@endinputifotherversion {3.24pt}}
\@writefile{nav}{\beamer@endinputifotherversion {3.24pt}}
\select@language{french}
\@writefile{toc}{\select@language{french}}
\@writefile{lof}{\select@language{french}}
\@writefile{lot}{\select@language{french}}
\@writefile{nav}{\headcommand {\slideentry {0}{0}{1}{1/1}{}{0}}}
\@writefile{nav}{\headcommand {\beamer@framepages {1}{1}}}
\@writefile{nav}{\headcommand {\slideentry {0}{0}{2}{2/2}{}{0}}}
\@writefile{nav}{\headcommand {\beamer@framepages {2}{2}}}
\@writefile{toc}{\beamer@sectionintoc {1}{Introduction}{3}{0}{1}}
\@writefile{nav}{\headcommand {\sectionentry {1}{Introduction}{3}{Introduction}{0}}}
\@writefile{nav}{\headcommand {\beamer@sectionpages {1}{2}}}
\@writefile{nav}{\headcommand {\beamer@subsectionpages {1}{2}}}
\@writefile{nav}{\headcommand {\slideentry {1}{0}{3}{3/3}{}{0}}}
\@writefile{nav}{\headcommand {\beamer@framepages {3}{3}}}
\@writefile{toc}{\beamer@sectionintoc {2}{Pr\IeC {\'e}liminaires}{4}{0}{2}}
\@writefile{nav}{\headcommand {\sectionentry {2}{Pr\IeC {\'e}liminaires}{4}{Pr\IeC {\'e}liminaires}{0}}}
\@writefile{nav}{\headcommand {\beamer@sectionpages {3}{3}}}
\@writefile{nav}{\headcommand {\beamer@subsectionpages {3}{3}}}
\@writefile{nav}{\headcommand {\slideentry {2}{0}{4}{4/4}{}{0}}}
\@writefile{nav}{\headcommand {\beamer@framepages {4}{4}}}
\@writefile{toc}{\beamer@subsectionintoc {2}{1}{D\IeC {\'e}finitions et histoire}{5}{0}{2}}
\@writefile{nav}{\headcommand {\beamer@subsectionentry {0}{2}{1}{5}{D\IeC {\'e}finitions et histoire}}\headcommand {\beamer@subsectionpages {4}{4}}}
\@writefile{nav}{\headcommand {\slideentry {2}{1}{1}{5/5}{D\IeC {\'e}finitions et histoire}{0}}}
\@writefile{nav}{\headcommand {\beamer@framepages {5}{5}}}
\@writefile{nav}{\headcommand {\slideentry {2}{1}{2}{6/6}{D\IeC {\'e}finitions et histoire}{0}}}
\@writefile{nav}{\headcommand {\beamer@framepages {6}{6}}}
\@writefile{nav}{\headcommand {\slideentry {2}{1}{3}{7/7}{D\IeC {\'e}finitions et histoire}{0}}}
\@writefile{nav}{\headcommand {\beamer@framepages {7}{7}}}
\@writefile{nav}{\headcommand {\slideentry {2}{1}{4}{8/8}{D\IeC {\'e}finitions et histoire}{0}}}
\@writefile{nav}{\headcommand {\beamer@framepages {8}{8}}}
\@writefile{nav}{\headcommand {\slideentry {2}{1}{5}{9/9}{D\IeC {\'e}finitions et histoire}{0}}}
\@writefile{nav}{\headcommand {\beamer@framepages {9}{9}}}
\@writefile{toc}{\beamer@subsectionintoc {2}{2}{Objectifs et contraintes du projet}{10}{0}{2}}
\@writefile{nav}{\headcommand {\beamer@subsectionentry {0}{2}{2}{10}{Objectifs et contraintes du projet}}\headcommand {\beamer@subsectionpages {5}{9}}}
\@writefile{nav}{\headcommand {\slideentry {2}{2}{1}{10/10}{Objectifs et contraintes du projet}{0}}}
\@writefile{nav}{\headcommand {\beamer@framepages {10}{10}}}
\@writefile{toc}{\beamer@sectionintoc {3}{Reproduction de l'algorithme du DES}{11}{0}{3}}
\@writefile{nav}{\headcommand {\sectionentry {3}{Reproduction de l'algorithme du DES}{11}{Reproduction de l'algorithme du DES}{0}}}
\@writefile{nav}{\headcommand {\beamer@sectionpages {4}{10}}}
\@writefile{nav}{\headcommand {\beamer@subsectionpages {10}{10}}}
\@writefile{nav}{\headcommand {\slideentry {3}{0}{2}{11/11}{}{0}}}
\@writefile{nav}{\headcommand {\beamer@framepages {11}{11}}}
\@writefile{toc}{\beamer@subsectionintoc {3}{1}{Th\IeC {\'e}orie}{12}{0}{3}}
\@writefile{nav}{\headcommand {\beamer@subsectionentry {0}{3}{1}{12}{Th\IeC {\'e}orie}}\headcommand {\beamer@subsectionpages {11}{11}}}
\newlabel{des16tours}{{8}{12}{Théorie}{Doc-Start}{}}
\@writefile{snm}{\beamer@slide {des16tours}{12}}
\@writefile{nav}{\headcommand {\slideentry {3}{1}{1}{12/12}{Th\IeC {\'e}orie}{0}}}
\@writefile{nav}{\headcommand {\beamer@framepages {12}{12}}}
\@writefile{toc}{\beamer@subsectionintoc {3}{2}{Pratique}{13}{0}{3}}
\@writefile{nav}{\headcommand {\beamer@subsectionentry {0}{3}{2}{13}{Pratique}}\headcommand {\beamer@subsectionpages {12}{12}}}
\newlabel{permutation}{{9}{13}{Pratique}{Doc-Start}{}}
\@writefile{snm}{\beamer@slide {permutation}{13}}
\@writefile{nav}{\headcommand {\slideentry {3}{2}{1}{13/13}{Pratique}{0}}}
\@writefile{nav}{\headcommand {\beamer@framepages {13}{13}}}
\@writefile{nav}{\headcommand {\slideentry {3}{2}{2}{14/14}{Pratique}{0}}}
\@writefile{nav}{\headcommand {\beamer@framepages {14}{14}}}
\newlabel{sbox}{{10}{15}{Pratique}{Doc-Start}{}}
\@writefile{snm}{\beamer@slide {sbox}{15}}
\@writefile{nav}{\headcommand {\slideentry {3}{2}{3}{15/15}{Pratique}{0}}}
\@writefile{nav}{\headcommand {\beamer@framepages {15}{15}}}
\newlabel{demoChiffrement}{{11}{16}{Pratique}{Doc-Start}{}}
\@writefile{snm}{\beamer@slide {demoChiffrement}{16}}
\newlabel{demoChiffrementInternet}{{12}{16}{Pratique}{Doc-Start}{}}
\@writefile{snm}{\beamer@slide {demoChiffrementInternet}{16}}
\@writefile{nav}{\headcommand {\slideentry {3}{2}{4}{16/16}{Pratique}{0}}}
\@writefile{nav}{\headcommand {\beamer@framepages {16}{16}}}
\newlabel{demoDechiffrement}{{13}{17}{Pratique}{Doc-Start}{}}
\@writefile{snm}{\beamer@slide {demoDechiffrement}{17}}
\newlabel{demoDechiffrementInternet}{{14}{17}{Pratique}{Doc-Start}{}}
\@writefile{snm}{\beamer@slide {demoDechiffrementInternet}{17}}
\@writefile{nav}{\headcommand {\slideentry {3}{2}{5}{17/17}{Pratique}{0}}}
\@writefile{nav}{\headcommand {\beamer@framepages {17}{17}}}
\@writefile{nav}{\headcommand {\slideentry {3}{2}{6}{18/18}{Pratique}{0}}}
\@writefile{nav}{\headcommand {\beamer@framepages {18}{18}}}
\@writefile{toc}{\beamer@sectionintoc {4}{Cryptanalyse de notre algorithme}{19}{0}{4}}
\@writefile{nav}{\headcommand {\sectionentry {4}{Cryptanalyse de notre algorithme}{19}{Cryptanalyse de notre algorithme}{0}}}
\@writefile{nav}{\headcommand {\beamer@sectionpages {11}{18}}}
\@writefile{nav}{\headcommand {\beamer@subsectionpages {13}{18}}}
\@writefile{nav}{\headcommand {\slideentry {4}{0}{7}{19/19}{}{0}}}
\@writefile{nav}{\headcommand {\beamer@framepages {19}{19}}}
\@writefile{nav}{\headcommand {\slideentry {4}{0}{8}{20/20}{}{0}}}
\@writefile{nav}{\headcommand {\beamer@framepages {20}{20}}}
\@writefile{toc}{\beamer@subsectionintoc {4}{1}{Analyses pr\IeC {\'e}alables}{21}{0}{4}}
\@writefile{nav}{\headcommand {\beamer@subsectionentry {0}{4}{1}{21}{Analyses pr\IeC {\'e}alables}}\headcommand {\beamer@subsectionpages {19}{20}}}
\@writefile{nav}{\headcommand {\slideentry {4}{1}{1}{21/21}{Analyses pr\IeC {\'e}alables}{0}}}
\@writefile{nav}{\headcommand {\beamer@framepages {21}{21}}}
\newlabel{sbox1}{{15}{22}{Analyses préalables}{Doc-Start}{}}
\@writefile{snm}{\beamer@slide {sbox1}{22}}
\@writefile{nav}{\headcommand {\slideentry {4}{1}{2}{22/22}{Analyses pr\IeC {\'e}alables}{0}}}
\@writefile{nav}{\headcommand {\beamer@framepages {22}{22}}}
\@writefile{nav}{\headcommand {\slideentry {4}{1}{3}{23/23}{Analyses pr\IeC {\'e}alables}{0}}}
\@writefile{nav}{\headcommand {\beamer@framepages {23}{23}}}
\@writefile{toc}{\beamer@subsectionintoc {4}{2}{Cryptanalyse}{24}{0}{4}}
\@writefile{nav}{\headcommand {\beamer@subsectionentry {0}{4}{2}{24}{Cryptanalyse}}\headcommand {\beamer@subsectionpages {21}{23}}}
\newlabel{delta4tours}{{16}{24}{Cryptanalyse}{Doc-Start}{}}
\@writefile{snm}{\beamer@slide {delta4tours}{24}}
\@writefile{nav}{\headcommand {\slideentry {4}{2}{1}{24/24}{Cryptanalyse}{0}}}
\@writefile{nav}{\headcommand {\beamer@framepages {24}{24}}}
\@writefile{nav}{\headcommand {\slideentry {4}{2}{2}{25/25}{Cryptanalyse}{0}}}
\@writefile{nav}{\headcommand {\beamer@framepages {25}{25}}}
\@writefile{nav}{\headcommand {\slideentry {4}{2}{3}{26/26}{Cryptanalyse}{0}}}
\@writefile{nav}{\headcommand {\beamer@framepages {26}{26}}}
\newlabel{des1tour}{{17}{27}{Cryptanalyse}{Doc-Start}{}}
\@writefile{snm}{\beamer@slide {des1tour}{27}}
\@writefile{nav}{\headcommand {\slideentry {4}{2}{4}{27/27}{Cryptanalyse}{0}}}
\@writefile{nav}{\headcommand {\beamer@framepages {27}{27}}}
\newlabel{deltaCleTour4}{{18}{28}{Cryptanalyse}{Doc-Start}{}}
\@writefile{snm}{\beamer@slide {deltaCleTour4}{28}}
\newlabel{des1tour}{{19}{28}{Cryptanalyse}{Doc-Start}{}}
\@writefile{snm}{\beamer@slide {des1tour}{28}}
\@writefile{nav}{\headcommand {\slideentry {4}{2}{5}{28/28}{Cryptanalyse}{0}}}
\@writefile{nav}{\headcommand {\beamer@framepages {28}{28}}}
\@writefile{toc}{\beamer@sectionintoc {5}{Conclusion}{29}{0}{5}}
\@writefile{nav}{\headcommand {\sectionentry {5}{Conclusion}{29}{Conclusion}{0}}}
\@writefile{nav}{\headcommand {\beamer@sectionpages {19}{28}}}
\@writefile{nav}{\headcommand {\beamer@subsectionpages {24}{28}}}
\@writefile{nav}{\headcommand {\slideentry {5}{0}{6}{29/29}{}{0}}}
\@writefile{nav}{\headcommand {\beamer@framepages {29}{29}}}
\@writefile{nav}{\headcommand {\beamer@partpages {1}{29}}}
\@writefile{nav}{\headcommand {\beamer@subsectionpages {29}{29}}}
\@writefile{nav}{\headcommand {\beamer@sectionpages {29}{29}}}
\@writefile{nav}{\headcommand {\beamer@documentpages {29}}}
\@writefile{nav}{\headcommand {\def \inserttotalframenumber {29}}}
