\beamer@endinputifotherversion {3.24pt}
\select@language {french}
\beamer@sectionintoc {1}{Introduction}{3}{0}{1}
\beamer@sectionintoc {2}{Pr\IeC {\'e}liminaires}{4}{0}{2}
\beamer@subsectionintoc {2}{1}{D\IeC {\'e}finitions et histoire}{5}{0}{2}
\beamer@subsectionintoc {2}{2}{Objectifs et contraintes du projet}{10}{0}{2}
\beamer@sectionintoc {3}{Reproduction de l'algorithme du DES}{11}{0}{3}
\beamer@subsectionintoc {3}{1}{Th\IeC {\'e}orie}{12}{0}{3}
\beamer@subsectionintoc {3}{2}{Pratique}{13}{0}{3}
\beamer@sectionintoc {4}{Cryptanalyse de notre algorithme}{19}{0}{4}
\beamer@subsectionintoc {4}{1}{Analyses pr\IeC {\'e}alables}{21}{0}{4}
\beamer@subsectionintoc {4}{2}{Cryptanalyse}{24}{0}{4}
\beamer@sectionintoc {5}{Conclusion}{29}{0}{5}
